2::trevor::hall::345::donald dr::new philadelphia::OH::44663::::usa
3::test::test::123::test st::dover::OH::44622::::usa
4::leonard::nimoy::1234::main st::akron::OH::12345::::usa
5::test::test::1234::test st::pittsburgh::PA::12345::::usa
1::chris::stadler::614::east 4th street::dover::OH::44622::::usa
6::Craig::Stalder::614::East 4th street::Dover::OH::44622::null::USA
